BIO228 at CCNY - Lab 7 - Community Ecology
…
Another good practice in R is to always create a new script to store and keep track of all the code you have used in a project. Just typing code in the console means it will be very hard to look back through what you did after you have done a lot. In RStudio, go to File > New File > R Script. This will open an empty text editor within R, named Untitled1. This file is not saved, so we will go ahead and save it by goint to File > Save. Choose the same folder we have been using so far and name the file “Lab 7”.

Now we can start writing our code in the script and running it step by step by pressing Cmnd + Enter (Mac) or Ctrl + Enter (Windows/Linux). Start by loading the tidyverse package using the library function.

library(tidyverse)

Then read the CSV file with the Pokémon data using the read_csv() function. We’ll store it to an object called pokemon_dataset.

pokemon_dataset <- read_csv("pokemon_dataset.csv")

We can call this object to take a quick look at the data…

pokemon_dataset

# A tibble: 797 × 12
   section   emplid borough  weather pokemon_name combat_power_CP hit_points_HP
   <chr>      <dbl> <chr>    <chr>   <chr>        <chr>                   <dbl>
 1 1EG     13155987 Brooklyn Rainy   Joltik       42                         23
 2 1EG     13155987 Brooklyn Rainy   Stufful      242                        64
 3 1EG     13155987 Brooklyn Rainy   Seedot       10                         11
 4 1EG     13155987 Brooklyn Rainy   Voltorb      86                         32
 5 1EG     13155987 Brooklyn Rainy   Tentacool    187                        44
 6 1EG     13155987 Brooklyn Rainy   Machop       290                        73
 7 1EG     13155987 Brooklyn Rainy   Dedenne      279                        56
 8 1EG     13155987 Brooklyn Rainy   Inkay        11                         14
 9 1EG     13155987 Brooklyn Rainy   Makuhita     116                        57
10 1EG     13155987 Brooklyn Rainy   Ekans        239                        50
# ℹ 787 more rows
# ℹ 5 more variables: weight_kg <chr>, type_1 <chr>, type_2 <chr>,
#   height_m <dbl>, location_caught <chr>
…
